1 10 20
100 200 125
201 210 89
900 1000 174
99999 999999 525
100 233 128
13 24 21
842 9043 262
34 654 145
467 9023 262
864 999 179
1900 2000 175
400 500 142
233 234 84
233 233 84
1 1 1
2 10 20
3 490 144
5 99 119
100 201 125
324 542 144
43 53 105
90 99 119
100 900 179
1002 2001 182
6743 32456 308
3234 5455 238
9001 23345 279
100 900 179
1011 1012 112
5490 32233 308
15 55 113
1 3 8
4 10 20
9 99 119
10 40 112
93 99 119
100 103 88
435 555 142
4345 5000 215
1500 2500 209
2500 3400 217
3200 4400 238
5500 6000 236
5200 5900 236
1000 9000 262
1011 1044 156
1043 1099 169
202 222 115
1000 1500 182
5500 9000 262
9000 9099 185
102 409 144
543 888 179
999 1000 112
435 658 145
103 345 144
193 435 144
43 54 113
859 999 179
43 104 119
943 1000 143
94 98 119
101 501 144
78 99 119
43 74 116
143 589 144
23 54 113
909 999 174
549 590 137
8594 9999 260
1000 1045 156
5893 32954 308
9 19 21
43 55 113
895 5899 238
234 954 179
589 999 179
768 1011 179
54 68 113
43 66 113
89 99 119
54 89 116
489 690 145
894 999 174
104 609 144
89 434 144
894 1000 174
89 132 122
584 992 179
85 254 128
689 999 179
435 658 145
895 904 117
895 4899 238
745 895 179
504 777 171
8 43 112
9 23 21
89 99 119
584 653 145
81 99 119
589 776 171
84 490 144
43 659 145
34 80 116
545 656 145
769 897 179
546 660 145
